%YAML 1.1
%TAG !u! tag:unity3d.com,2011:
--- !u!114 &11400000
MonoBehaviour:
  m_ObjectHideFlags: 0
  m_CorrespondingSourceObject: {fileID: 0}
  m_PrefabInstance: {fileID: 0}
  m_PrefabAsset: {fileID: 0}
  m_GameObject: {fileID: 0}
  m_Enabled: 1
  m_EditorHideFlags: 0
  m_Script: {fileID: 11500000, guid: dbf90ee6f5dfd6a42883e9928805c066, type: 3}
  m_Name: AlignmentBehaviour
  m_EditorClassIdentifier: 
  contextFilter: {fileID: 11400000, guid: 231cdda37123ed140915d7c92239e3d0, type: 2}
