%YAML 1.1
%TAG !u! tag:unity3d.com,2011:
--- !u!114 &11400000
MonoBehaviour:
  m_ObjectHideFlags: 0
  m_CorrespondingSourceObject: {fileID: 0}
  m_PrefabInstance: {fileID: 0}
  m_PrefabAsset: {fileID: 0}
  m_GameObject: {fileID: 0}
  m_Enabled: 1
  m_EditorHideFlags: 0
  m_Script: {fileID: 11500000, guid: e2db40fd5ffd7004faf1c26600c2ef8e, type: 3}
  m_Name: AvoidanceBehaviourHandler
  m_EditorClassIdentifier: 
  flockBehaviour: {fileID: 11400000, guid: 025220d1f163dd5478879f57169ca405, type: 2}
  flockBehaviourWeight: 2
